{
  "configVersion": 2,
  "packages": [
    {
      "name": "_fe_analyzer_shared",
      "rootUri": "file:///Users/kirankokate/Downloads/flutter/.pub-cache/hosted/pub.dartlang.org/_fe_analyzer_shared-3.0.0",
      "packageUri": "lib/",
      "languageVersion": "2.2"
    },
    {
      "name": "analyzer",
      "rootUri": "file:///Users/kirankokate/Downloads/flutter/.pub-cache/hosted/pub.dartlang.org/analyzer-0.39.8",
      "packageUri": "lib/",
      "languageVersion": "2.6"
    },
    {
      "name": "android_alarm_manager",
      "rootUri": "file:///Users/kirankokate/Downloads/flutter/.pub-cache/hosted/pub.dartlang.org/android_alarm_manager-0.4.5+11",
      "packageUri": "lib/",
      "languageVersion": "2.1"
    },
    {
      "name": "archive",
      "rootUri": "file:///Users/kirankokate/Downloads/flutter/.pub-cache/hosted/pub.dartlang.org/archive-2.0.13",
      "packageUri": "lib/",
      "languageVersion": "2.0"
    },
    {
      "name": "args",
      "rootUri": "file:///Users/kirankokate/Downloads/flutter/.pub-cache/hosted/pub.dartlang.org/args-1.6.0",
      "packageUri": "lib/",
      "languageVersion": "2.3"
    },
    {
      "name": "async",
      "rootUri": "file:///Users/kirankokate/Downloads/flutter/.pub-cache/hosted/pub.dartlang.org/async-2.4.1",
      "packageUri": "lib/",
      "languageVersion": "2.2"
    },
    {
      "name": "audioplayers",
      "rootUri": "file:///Users/kirankokate/Downloads/flutter/.pub-cache/hosted/pub.dartlang.org/audioplayers-0.15.1",
      "packageUri": "lib/",
      "languageVersion": "2.6"
    },
    {
      "name": "boolean_selector",
      "rootUri": "file:///Users/kirankokate/Downloads/flutter/.pub-cache/hosted/pub.dartlang.org/boolean_selector-2.0.0",
      "packageUri": "lib/",
      "languageVersion": "2.4"
    },
    {
      "name": "build",
      "rootUri": "file:///Users/kirankokate/Downloads/flutter/.pub-cache/hosted/pub.dartlang.org/build-1.3.0",
      "packageUri": "lib/",
      "languageVersion": "2.7"
    },
    {
      "name": "build_config",
      "rootUri": "file:///Users/kirankokate/Downloads/flutter/.pub-cache/hosted/pub.dartlang.org/build_config-0.4.2",
      "packageUri": "lib/",
      "languageVersion": "2.6"
    },
    {
      "name": "build_daemon",
      "rootUri": "file:///Users/kirankokate/Downloads/flutter/.pub-cache/hosted/pub.dartlang.org/build_daemon-2.1.4",
      "packageUri": "lib/",
      "languageVersion": "2.6"
    },
    {
      "name": "build_resolvers",
      "rootUri": "file:///Users/kirankokate/Downloads/flutter/.pub-cache/hosted/pub.dartlang.org/build_resolvers-1.3.9",
      "packageUri": "lib/",
      "languageVersion": "2.7"
    },
    {
      "name": "build_runner",
      "rootUri": "file:///Users/kirankokate/Downloads/flutter/.pub-cache/hosted/pub.dartlang.org/build_runner-1.10.0",
      "packageUri": "lib/",
      "languageVersion": "2.6"
    },
    {
      "name": "build_runner_core",
      "rootUri": "file:///Users/kirankokate/Downloads/flutter/.pub-cache/hosted/pub.dartlang.org/build_runner_core-5.2.0",
      "packageUri": "lib/",
      "languageVersion": "2.7"
    },
    {
      "name": "built_collection",
      "rootUri": "file:///Users/kirankokate/Downloads/flutter/.pub-cache/hosted/pub.dartlang.org/built_collection-4.3.2",
      "packageUri": "lib/",
      "languageVersion": "2.6"
    },
    {
      "name": "built_value",
      "rootUri": "file:///Users/kirankokate/Downloads/flutter/.pub-cache/hosted/pub.dartlang.org/built_value-7.1.0",
      "packageUri": "lib/",
      "languageVersion": "2.3"
    },
    {
      "name": "cached_network_image",
      "rootUri": "file:///Users/kirankokate/Downloads/flutter/.pub-cache/hosted/pub.dartlang.org/cached_network_image-2.2.0+1",
      "packageUri": "lib/",
      "languageVersion": "2.1"
    },
    {
      "name": "characters",
      "rootUri": "file:///Users/kirankokate/Downloads/flutter/.pub-cache/hosted/pub.dartlang.org/characters-0.3.1",
      "packageUri": "lib/",
      "languageVersion": "2.5"
    },
    {
      "name": "charcode",
      "rootUri": "file:///Users/kirankokate/Downloads/flutter/.pub-cache/hosted/pub.dartlang.org/charcode-1.1.3",
      "packageUri": "lib/",
      "languageVersion": "2.0"
    },
    {
      "name": "checked_yaml",
      "rootUri": "file:///Users/kirankokate/Downloads/flutter/.pub-cache/hosted/pub.dartlang.org/checked_yaml-1.0.2",
      "packageUri": "lib/",
      "languageVersion": "2.3"
    },
    {
      "name": "clock",
      "rootUri": "file:///Users/kirankokate/Downloads/flutter/.pub-cache/hosted/pub.dartlang.org/clock-1.0.1",
      "packageUri": "lib/",
      "languageVersion": "2.0"
    },
    {
      "name": "code_builder",
      "rootUri": "file:///Users/kirankokate/Downloads/flutter/.pub-cache/hosted/pub.dartlang.org/code_builder-3.3.0",
      "packageUri": "lib/",
      "languageVersion": "2.6"
    },
    {
      "name": "collection",
      "rootUri": "file:///Users/kirankokate/Downloads/flutter/.pub-cache/hosted/pub.dartlang.org/collection-1.14.12",
      "packageUri": "lib/",
      "languageVersion": "2.0"
    },
    {
      "name": "configurable_expansion_tile",
      "rootUri": "file:///Users/kirankokate/Downloads/flutter/.pub-cache/hosted/pub.dartlang.org/configurable_expansion_tile-1.0.0",
      "packageUri": "lib/",
      "languageVersion": "2.0"
    },
    {
      "name": "connectivity",
      "rootUri": "file:///Users/kirankokate/Downloads/flutter/.pub-cache/hosted/pub.dartlang.org/connectivity-0.4.8+6",
      "packageUri": "lib/",
      "languageVersion": "2.1"
    },
    {
      "name": "connectivity_macos",
      "rootUri": "file:///Users/kirankokate/Downloads/flutter/.pub-cache/hosted/pub.dartlang.org/connectivity_macos-0.1.0+3",
      "packageUri": "lib/",
      "languageVersion": "2.1"
    },
    {
      "name": "connectivity_platform_interface",
      "rootUri": "file:///Users/kirankokate/Downloads/flutter/.pub-cache/hosted/pub.dartlang.org/connectivity_platform_interface-1.0.6",
      "packageUri": "lib/",
      "languageVersion": "2.1"
    },
    {
      "name": "convert",
      "rootUri": "file:///Users/kirankokate/Downloads/flutter/.pub-cache/hosted/pub.dartlang.org/convert-2.1.1",
      "packageUri": "lib/",
      "languageVersion": "1.17"
    },
    {
      "name": "crypto",
      "rootUri": "file:///Users/kirankokate/Downloads/flutter/.pub-cache/hosted/pub.dartlang.org/crypto-2.1.4",
      "packageUri": "lib/",
      "languageVersion": "2.1"
    },
    {
      "name": "csslib",
      "rootUri": "file:///Users/kirankokate/Downloads/flutter/.pub-cache/hosted/pub.dartlang.org/csslib-0.16.1",
      "packageUri": "lib/",
      "languageVersion": "2.1"
    },
    {
      "name": "cupertino_icons",
      "rootUri": "file:///Users/kirankokate/Downloads/flutter/.pub-cache/hosted/pub.dartlang.org/cupertino_icons-0.1.3",
      "packageUri": "lib/",
      "languageVersion": "2.0"
    },
    {
      "name": "dart_style",
      "rootUri": "file:///Users/kirankokate/Downloads/flutter/.pub-cache/hosted/pub.dartlang.org/dart_style-1.3.6",
      "packageUri": "lib/",
      "languageVersion": "2.7"
    },
    {
      "name": "dartx",
      "rootUri": "file:///Users/kirankokate/Downloads/flutter/.pub-cache/hosted/pub.dartlang.org/dartx-0.3.0",
      "packageUri": "lib/",
      "languageVersion": "2.6"
    },
    {
      "name": "datetime_picker_formfield",
      "rootUri": "file:///Users/kirankokate/Downloads/flutter/.pub-cache/hosted/pub.dartlang.org/datetime_picker_formfield-1.0.0",
      "packageUri": "lib/",
      "languageVersion": "2.0"
    },
    {
      "name": "expandable",
      "rootUri": "file:///Users/kirankokate/Downloads/flutter/.pub-cache/hosted/pub.dartlang.org/expandable-4.1.4",
      "packageUri": "lib/",
      "languageVersion": "2.7"
    },
    {
      "name": "fab_circular_menu",
      "rootUri": "file:///Users/kirankokate/Downloads/flutter/.pub-cache/hosted/pub.dartlang.org/fab_circular_menu-1.0.0",
      "packageUri": "lib/",
      "languageVersion": "2.1"
    },
    {
      "name": "file",
      "rootUri": "file:///Users/kirankokate/Downloads/flutter/.pub-cache/hosted/pub.dartlang.org/file-5.1.0",
      "packageUri": "lib/",
      "languageVersion": "2.2"
    },
    {
      "name": "firebase",
      "rootUri": "file:///Users/kirankokate/Downloads/flutter/.pub-cache/hosted/pub.dartlang.org/firebase-7.3.0",
      "packageUri": "lib/",
      "languageVersion": "2.7"
    },
    {
      "name": "firebase_analytics",
      "rootUri": "file:///Users/kirankokate/Downloads/flutter/.pub-cache/hosted/pub.dartlang.org/firebase_analytics-5.0.14",
      "packageUri": "lib/",
      "languageVersion": "2.0"
    },
    {
      "name": "firebase_core",
      "rootUri": "file:///Users/kirankokate/Downloads/flutter/.pub-cache/hosted/pub.dartlang.org/firebase_core-0.4.5",
      "packageUri": "lib/",
      "languageVersion": "2.0"
    },
    {
      "name": "firebase_core_platform_interface",
      "rootUri": "file:///Users/kirankokate/Downloads/flutter/.pub-cache/hosted/pub.dartlang.org/firebase_core_platform_interface-1.0.4",
      "packageUri": "lib/",
      "languageVersion": "2.0"
    },
    {
      "name": "firebase_core_web",
      "rootUri": "file:///Users/kirankokate/Downloads/flutter/.pub-cache/hosted/pub.dartlang.org/firebase_core_web-0.1.1+2",
      "packageUri": "lib/",
      "languageVersion": "2.0"
    },
    {
      "name": "firebase_messaging",
      "rootUri": "file:///Users/kirankokate/Downloads/flutter/.pub-cache/hosted/pub.dartlang.org/firebase_messaging-6.0.16",
      "packageUri": "lib/",
      "languageVersion": "2.0"
    },
    {
      "name": "fixnum",
      "rootUri": "file:///Users/kirankokate/Downloads/flutter/.pub-cache/hosted/pub.dartlang.org/fixnum-0.10.11",
      "packageUri": "lib/",
      "languageVersion": "2.1"
    },
    {
      "name": "flutter",
      "rootUri": "file:///Users/kirankokate/Downloads/flutter/packages/flutter",
      "packageUri": "lib/",
      "languageVersion": "2.2"
    },
    {
      "name": "flutter_cache_manager",
      "rootUri": "file:///Users/kirankokate/Downloads/flutter/.pub-cache/hosted/pub.dartlang.org/flutter_cache_manager-1.3.0",
      "packageUri": "lib/",
      "languageVersion": "2.6"
    },
    {
      "name": "flutter_datetime_picker",
      "rootUri": "file:///Users/kirankokate/Downloads/flutter/.pub-cache/hosted/pub.dartlang.org/flutter_datetime_picker-1.3.8",
      "packageUri": "lib/",
      "languageVersion": "2.0"
    },
    {
      "name": "flutter_local_notifications",
      "rootUri": "file:///Users/kirankokate/Downloads/flutter/.pub-cache/hosted/pub.dartlang.org/flutter_local_notifications-1.4.4",
      "packageUri": "lib/",
      "languageVersion": "2.0"
    },
    {
      "name": "flutter_local_notifications_platform_interface",
      "rootUri": "file:///Users/kirankokate/Downloads/flutter/.pub-cache/hosted/pub.dartlang.org/flutter_local_notifications_platform_interface-1.0.1",
      "packageUri": "lib/",
      "languageVersion": "2.1"
    },
    {
      "name": "flutter_ringtone_player",
      "rootUri": "file:///Users/kirankokate/Downloads/flutter/.pub-cache/hosted/pub.dartlang.org/flutter_ringtone_player-2.0.0",
      "packageUri": "lib/",
      "languageVersion": "2.1"
    },
    {
      "name": "flutter_share_me",
      "rootUri": "file:///Users/kirankokate/Downloads/flutter/.pub-cache/hosted/pub.dartlang.org/flutter_share_me-0.1.3",
      "packageUri": "lib/",
      "languageVersion": "2.0"
    },
    {
      "name": "flutter_test",
      "rootUri": "file:///Users/kirankokate/Downloads/flutter/packages/flutter_test",
      "packageUri": "lib/",
      "languageVersion": "2.2"
    },
    {
      "name": "flutter_web_plugins",
      "rootUri": "file:///Users/kirankokate/Downloads/flutter/packages/flutter_web_plugins",
      "packageUri": "lib/",
      "languageVersion": "2.0"
    },
    {
      "name": "fluttertoast",
      "rootUri": "file:///Users/kirankokate/Downloads/flutter/.pub-cache/hosted/pub.dartlang.org/fluttertoast-4.0.1",
      "packageUri": "lib/",
      "languageVersion": "2.0"
    },
    {
      "name": "get_it",
      "rootUri": "file:///Users/kirankokate/Downloads/flutter/.pub-cache/hosted/pub.dartlang.org/get_it-1.1.0",
      "packageUri": "lib/",
      "languageVersion": "2.0"
    },
    {
      "name": "glob",
      "rootUri": "file:///Users/kirankokate/Downloads/flutter/.pub-cache/hosted/pub.dartlang.org/glob-1.2.0",
      "packageUri": "lib/",
      "languageVersion": "2.1"
    },
    {
      "name": "google_fonts",
      "rootUri": "file:///Users/kirankokate/Downloads/flutter/.pub-cache/hosted/pub.dartlang.org/google_fonts-0.6.2",
      "packageUri": "lib/",
      "languageVersion": "2.3"
    },
    {
      "name": "graphs",
      "rootUri": "file:///Users/kirankokate/Downloads/flutter/.pub-cache/hosted/pub.dartlang.org/graphs-0.2.0",
      "packageUri": "lib/",
      "languageVersion": "2.0"
    },
    {
      "name": "hexcolor",
      "rootUri": "file:///Users/kirankokate/Downloads/flutter/.pub-cache/hosted/pub.dartlang.org/hexcolor-1.0.2",
      "packageUri": "lib/",
      "languageVersion": "2.7"
    },
    {
      "name": "hive",
      "rootUri": "file:///Users/kirankokate/Downloads/flutter/.pub-cache/hosted/pub.dartlang.org/hive-1.4.1+1",
      "packageUri": "lib/",
      "languageVersion": "2.6"
    },
    {
      "name": "hive_flutter",
      "rootUri": "file:///Users/kirankokate/Downloads/flutter/.pub-cache/hosted/pub.dartlang.org/hive_flutter-0.3.0+2",
      "packageUri": "lib/",
      "languageVersion": "2.6"
    },
    {
      "name": "hive_generator",
      "rootUri": "file:///Users/kirankokate/Downloads/flutter/.pub-cache/hosted/pub.dartlang.org/hive_generator-0.7.0+2",
      "packageUri": "lib/",
      "languageVersion": "2.6"
    },
    {
      "name": "html",
      "rootUri": "file:///Users/kirankokate/Downloads/flutter/.pub-cache/hosted/pub.dartlang.org/html-0.14.0+3",
      "packageUri": "lib/",
      "languageVersion": "2.3"
    },
    {
      "name": "http",
      "rootUri": "file:///Users/kirankokate/Downloads/flutter/.pub-cache/hosted/pub.dartlang.org/http-0.12.1",
      "packageUri": "lib/",
      "languageVersion": "2.4"
    },
    {
      "name": "http_multi_server",
      "rootUri": "file:///Users/kirankokate/Downloads/flutter/.pub-cache/hosted/pub.dartlang.org/http_multi_server-2.2.0",
      "packageUri": "lib/",
      "languageVersion": "2.1"
    },
    {
      "name": "http_parser",
      "rootUri": "file:///Users/kirankokate/Downloads/flutter/.pub-cache/hosted/pub.dartlang.org/http_parser-3.1.4",
      "packageUri": "lib/",
      "languageVersion": "2.3"
    },
    {
      "name": "image",
      "rootUri": "file:///Users/kirankokate/Downloads/flutter/.pub-cache/hosted/pub.dartlang.org/image-2.1.12",
      "packageUri": "lib/",
      "languageVersion": "2.0"
    },
    {
      "name": "intl",
      "rootUri": "file:///Users/kirankokate/Downloads/flutter/.pub-cache/hosted/pub.dartlang.org/intl-0.16.1",
      "packageUri": "lib/",
      "languageVersion": "2.5"
    },
    {
      "name": "intl_translation",
      "rootUri": "file:///Users/kirankokate/Downloads/flutter/.pub-cache/hosted/pub.dartlang.org/intl_translation-0.17.9",
      "packageUri": "lib/",
      "languageVersion": "2.0"
    },
    {
      "name": "io",
      "rootUri": "file:///Users/kirankokate/Downloads/flutter/.pub-cache/hosted/pub.dartlang.org/io-0.3.4",
      "packageUri": "lib/",
      "languageVersion": "2.0"
    },
    {
      "name": "js",
      "rootUri": "file:///Users/kirankokate/Downloads/flutter/.pub-cache/hosted/pub.dartlang.org/js-0.6.1+1",
      "packageUri": "lib/",
      "languageVersion": "1.19"
    },
    {
      "name": "json_annotation",
      "rootUri": "file:///Users/kirankokate/Downloads/flutter/.pub-cache/hosted/pub.dartlang.org/json_annotation-3.0.1",
      "packageUri": "lib/",
      "languageVersion": "2.6"
    },
    {
      "name": "logging",
      "rootUri": "file:///Users/kirankokate/Downloads/flutter/.pub-cache/hosted/pub.dartlang.org/logging-0.11.4",
      "packageUri": "lib/",
      "languageVersion": "2.0"
    },
    {
      "name": "matcher",
      "rootUri": "file:///Users/kirankokate/Downloads/flutter/.pub-cache/hosted/pub.dartlang.org/matcher-0.12.6",
      "packageUri": "lib/",
      "languageVersion": "2.2"
    },
    {
      "name": "merge_map",
      "rootUri": "file:///Users/kirankokate/Downloads/flutter/.pub-cache/hosted/pub.dartlang.org/merge_map-1.0.2",
      "packageUri": "lib/",
      "languageVersion": "1.8"
    },
    {
      "name": "meta",
      "rootUri": "file:///Users/kirankokate/Downloads/flutter/.pub-cache/hosted/pub.dartlang.org/meta-1.1.8",
      "packageUri": "lib/",
      "languageVersion": "1.12"
    },
    {
      "name": "mime",
      "rootUri": "file:///Users/kirankokate/Downloads/flutter/.pub-cache/hosted/pub.dartlang.org/mime-0.9.6+3",
      "packageUri": "lib/",
      "languageVersion": "2.0"
    },
    {
      "name": "node_interop",
      "rootUri": "file:///Users/kirankokate/Downloads/flutter/.pub-cache/hosted/pub.dartlang.org/node_interop-1.1.1",
      "packageUri": "lib/",
      "languageVersion": "2.0"
    },
    {
      "name": "node_io",
      "rootUri": "file:///Users/kirankokate/Downloads/flutter/.pub-cache/hosted/pub.dartlang.org/node_io-1.1.1",
      "packageUri": "lib/",
      "languageVersion": "2.2"
    },
    {
      "name": "package_config",
      "rootUri": "file:///Users/kirankokate/Downloads/flutter/.pub-cache/hosted/pub.dartlang.org/package_config-1.9.3",
      "packageUri": "lib/",
      "languageVersion": "2.7"
    },
    {
      "name": "package_info",
      "rootUri": "file:///Users/kirankokate/Downloads/flutter/.pub-cache/hosted/pub.dartlang.org/package_info-0.4.0+18",
      "packageUri": "lib/",
      "languageVersion": "2.1"
    },
    {
      "name": "path",
      "rootUri": "file:///Users/kirankokate/Downloads/flutter/.pub-cache/hosted/pub.dartlang.org/path-1.6.4",
      "packageUri": "lib/",
      "languageVersion": "2.0"
    },
    {
      "name": "path_provider",
      "rootUri": "file:///Users/kirankokate/Downloads/flutter/.pub-cache/hosted/pub.dartlang.org/path_provider-1.6.9",
      "packageUri": "lib/",
      "languageVersion": "2.1"
    },
    {
      "name": "path_provider_macos",
      "rootUri": "file:///Users/kirankokate/Downloads/flutter/.pub-cache/hosted/pub.dartlang.org/path_provider_macos-0.0.4+3",
      "packageUri": "lib/",
      "languageVersion": "2.1"
    },
    {
      "name": "path_provider_platform_interface",
      "rootUri": "file:///Users/kirankokate/Downloads/flutter/.pub-cache/hosted/pub.dartlang.org/path_provider_platform_interface-1.0.2",
      "packageUri": "lib/",
      "languageVersion": "2.1"
    },
    {
      "name": "pedantic",
      "rootUri": "file:///Users/kirankokate/Downloads/flutter/.pub-cache/hosted/pub.dartlang.org/pedantic-1.9.0",
      "packageUri": "lib/",
      "languageVersion": "2.1"
    },
    {
      "name": "petitparser",
      "rootUri": "file:///Users/kirankokate/Downloads/flutter/.pub-cache/hosted/pub.dartlang.org/petitparser-2.4.0",
      "packageUri": "lib/",
      "languageVersion": "2.4"
    },
    {
      "name": "platform",
      "rootUri": "file:///Users/kirankokate/Downloads/flutter/.pub-cache/hosted/pub.dartlang.org/platform-2.2.1",
      "packageUri": "lib/",
      "languageVersion": "1.24"
    },
    {
      "name": "platform_detect",
      "rootUri": "file:///Users/kirankokate/Downloads/flutter/.pub-cache/hosted/pub.dartlang.org/platform_detect-1.4.0",
      "packageUri": "lib/",
      "languageVersion": "2.4"
    },
    {
      "name": "plugin_platform_interface",
      "rootUri": "file:///Users/kirankokate/Downloads/flutter/.pub-cache/hosted/pub.dartlang.org/plugin_platform_interface-1.0.2",
      "packageUri": "lib/",
      "languageVersion": "2.1"
    },
    {
      "name": "pool",
      "rootUri": "file:///Users/kirankokate/Downloads/flutter/.pub-cache/hosted/pub.dartlang.org/pool-1.4.0",
      "packageUri": "lib/",
      "languageVersion": "2.0"
    },
    {
      "name": "pub_semver",
      "rootUri": "file:///Users/kirankokate/Downloads/flutter/.pub-cache/hosted/pub.dartlang.org/pub_semver-1.4.4",
      "packageUri": "lib/",
      "languageVersion": "2.0"
    },
    {
      "name": "pubspec_parse",
      "rootUri": "file:///Users/kirankokate/Downloads/flutter/.pub-cache/hosted/pub.dartlang.org/pubspec_parse-0.1.5",
      "packageUri": "lib/",
      "languageVersion": "2.2"
    },
    {
      "name": "quiver",
      "rootUri": "file:///Users/kirankokate/Downloads/flutter/.pub-cache/hosted/pub.dartlang.org/quiver-2.1.3",
      "packageUri": "lib/",
      "languageVersion": "2.0"
    },
    {
      "name": "reorderables",
      "rootUri": "file:///Users/kirankokate/Downloads/flutter/.pub-cache/hosted/pub.dartlang.org/reorderables-0.3.2",
      "packageUri": "lib/",
      "languageVersion": "2.1"
    },
    {
      "name": "rxdart",
      "rootUri": "file:///Users/kirankokate/Downloads/flutter/.pub-cache/hosted/pub.dartlang.org/rxdart-0.24.1",
      "packageUri": "lib/",
      "languageVersion": "2.6"
    },
    {
      "name": "shared_preferences",
      "rootUri": "file:///Users/kirankokate/Downloads/flutter/.pub-cache/hosted/pub.dartlang.org/shared_preferences-0.5.7+3",
      "packageUri": "lib/",
      "languageVersion": "2.1"
    },
    {
      "name": "shared_preferences_macos",
      "rootUri": "file:///Users/kirankokate/Downloads/flutter/.pub-cache/hosted/pub.dartlang.org/shared_preferences_macos-0.0.1+9",
      "packageUri": "lib/",
      "languageVersion": "2.1"
    },
    {
      "name": "shared_preferences_platform_interface",
      "rootUri": "file:///Users/kirankokate/Downloads/flutter/.pub-cache/hosted/pub.dartlang.org/shared_preferences_platform_interface-1.0.4",
      "packageUri": "lib/",
      "languageVersion": "2.1"
    },
    {
      "name": "shared_preferences_web",
      "rootUri": "file:///Users/kirankokate/Downloads/flutter/.pub-cache/hosted/pub.dartlang.org/shared_preferences_web-0.1.2+7",
      "packageUri": "lib/",
      "languageVersion": "2.1"
    },
    {
      "name": "shelf",
      "rootUri": "file:///Users/kirankokate/Downloads/flutter/.pub-cache/hosted/pub.dartlang.org/shelf-0.7.5",
      "packageUri": "lib/",
      "languageVersion": "2.0"
    },
    {
      "name": "shelf_web_socket",
      "rootUri": "file:///Users/kirankokate/Downloads/flutter/.pub-cache/hosted/pub.dartlang.org/shelf_web_socket-0.2.3",
      "packageUri": "lib/",
      "languageVersion": "2.0"
    },
    {
      "name": "sky_engine",
      "rootUri": "file:///Users/kirankokate/Downloads/flutter/bin/cache/pkg/sky_engine",
      "packageUri": "lib/",
      "languageVersion": "1.11"
    },
    {
      "name": "sliding_up_panel",
      "rootUri": "file:///Users/kirankokate/Downloads/flutter/.pub-cache/hosted/pub.dartlang.org/sliding_up_panel-1.0.2",
      "packageUri": "lib/",
      "languageVersion": "2.1"
    },
    {
      "name": "solid_bottom_sheet",
      "rootUri": "file:///Users/kirankokate/Downloads/flutter/.pub-cache/hosted/pub.dartlang.org/solid_bottom_sheet-0.1.9",
      "packageUri": "lib/",
      "languageVersion": "2.1"
    },
    {
      "name": "source_gen",
      "rootUri": "file:///Users/kirankokate/Downloads/flutter/.pub-cache/hosted/pub.dartlang.org/source_gen-0.9.5",
      "packageUri": "lib/",
      "languageVersion": "2.5"
    },
    {
      "name": "source_span",
      "rootUri": "file:///Users/kirankokate/Downloads/flutter/.pub-cache/hosted/pub.dartlang.org/source_span-1.7.0",
      "packageUri": "lib/",
      "languageVersion": "2.6"
    },
    {
      "name": "sqflite",
      "rootUri": "file:///Users/kirankokate/Downloads/flutter/.pub-cache/hosted/pub.dartlang.org/sqflite-1.3.0+2",
      "packageUri": "lib/",
      "languageVersion": "2.7"
    },
    {
      "name": "sqflite_common",
      "rootUri": "file:///Users/kirankokate/Downloads/flutter/.pub-cache/hosted/pub.dartlang.org/sqflite_common-1.0.1",
      "packageUri": "lib/",
      "languageVersion": "2.7"
    },
    {
      "name": "stack_trace",
      "rootUri": "file:///Users/kirankokate/Downloads/flutter/.pub-cache/hosted/pub.dartlang.org/stack_trace-1.9.3",
      "packageUri": "lib/",
      "languageVersion": "1.23"
    },
    {
      "name": "store_redirect",
      "rootUri": "file:///Users/kirankokate/Downloads/flutter/.pub-cache/hosted/pub.dartlang.org/store_redirect-1.0.2",
      "packageUri": "lib/",
      "languageVersion": "2.0"
    },
    {
      "name": "stream_channel",
      "rootUri": "file:///Users/kirankokate/Downloads/flutter/.pub-cache/hosted/pub.dartlang.org/stream_channel-2.0.0",
      "packageUri": "lib/",
      "languageVersion": "2.0"
    },
    {
      "name": "stream_transform",
      "rootUri": "file:///Users/kirankokate/Downloads/flutter/.pub-cache/hosted/pub.dartlang.org/stream_transform-1.2.0",
      "packageUri": "lib/",
      "languageVersion": "2.6"
    },
    {
      "name": "string_scanner",
      "rootUri": "file:///Users/kirankokate/Downloads/flutter/.pub-cache/hosted/pub.dartlang.org/string_scanner-1.0.5",
      "packageUri": "lib/",
      "languageVersion": "2.0"
    },
    {
      "name": "synchronized",
      "rootUri": "file:///Users/kirankokate/Downloads/flutter/.pub-cache/hosted/pub.dartlang.org/synchronized-2.2.0",
      "packageUri": "lib/",
      "languageVersion": "2.6"
    },
    {
      "name": "term_glyph",
      "rootUri": "file:///Users/kirankokate/Downloads/flutter/.pub-cache/hosted/pub.dartlang.org/term_glyph-1.1.0",
      "packageUri": "lib/",
      "languageVersion": "1.8"
    },
    {
      "name": "test_api",
      "rootUri": "file:///Users/kirankokate/Downloads/flutter/.pub-cache/hosted/pub.dartlang.org/test_api-0.2.15",
      "packageUri": "lib/",
      "languageVersion": "2.4"
    },
    {
      "name": "time",
      "rootUri": "file:///Users/kirankokate/Downloads/flutter/.pub-cache/hosted/pub.dartlang.org/time-1.3.0",
      "packageUri": "lib/",
      "languageVersion": "2.6"
    },
    {
      "name": "timing",
      "rootUri": "file:///Users/kirankokate/Downloads/flutter/.pub-cache/hosted/pub.dartlang.org/timing-0.1.1+2",
      "packageUri": "lib/",
      "languageVersion": "2.2"
    },
    {
      "name": "typed_data",
      "rootUri": "file:///Users/kirankokate/Downloads/flutter/.pub-cache/hosted/pub.dartlang.org/typed_data-1.1.6",
      "packageUri": "lib/",
      "languageVersion": "2.0"
    },
    {
      "name": "url_launcher",
      "rootUri": "file:///Users/kirankokate/Downloads/flutter/.pub-cache/hosted/pub.dartlang.org/url_launcher-5.4.10",
      "packageUri": "lib/",
      "languageVersion": "2.1"
    },
    {
      "name": "url_launcher_macos",
      "rootUri": "file:///Users/kirankokate/Downloads/flutter/.pub-cache/hosted/pub.dartlang.org/url_launcher_macos-0.0.1+7",
      "packageUri": "lib/",
      "languageVersion": "2.1"
    },
    {
      "name": "url_launcher_platform_interface",
      "rootUri": "file:///Users/kirankokate/Downloads/flutter/.pub-cache/hosted/pub.dartlang.org/url_launcher_platform_interface-1.0.7",
      "packageUri": "lib/",
      "languageVersion": "2.1"
    },
    {
      "name": "url_launcher_web",
      "rootUri": "file:///Users/kirankokate/Downloads/flutter/.pub-cache/hosted/pub.dartlang.org/url_launcher_web-0.1.1+6",
      "packageUri": "lib/",
      "languageVersion": "2.2"
    },
    {
      "name": "uuid",
      "rootUri": "file:///Users/kirankokate/Downloads/flutter/.pub-cache/hosted/pub.dartlang.org/uuid-2.0.4",
      "packageUri": "lib/",
      "languageVersion": "2.0"
    },
    {
      "name": "vector_math",
      "rootUri": "file:///Users/kirankokate/Downloads/flutter/.pub-cache/hosted/pub.dartlang.org/vector_math-2.0.8",
      "packageUri": "lib/",
      "languageVersion": "2.0"
    },
    {
      "name": "watcher",
      "rootUri": "file:///Users/kirankokate/Downloads/flutter/.pub-cache/hosted/pub.dartlang.org/watcher-0.9.7+15",
      "packageUri": "lib/",
      "languageVersion": "2.2"
    },
    {
      "name": "web_socket_channel",
      "rootUri": "file:///Users/kirankokate/Downloads/flutter/.pub-cache/hosted/pub.dartlang.org/web_socket_channel-1.1.0",
      "packageUri": "lib/",
      "languageVersion": "2.0"
    },
    {
      "name": "webview_flutter",
      "rootUri": "file:///Users/kirankokate/Downloads/flutter/.pub-cache/hosted/pub.dartlang.org/webview_flutter-0.3.22+1",
      "packageUri": "lib/",
      "languageVersion": "2.7"
    },
    {
      "name": "xml",
      "rootUri": "file:///Users/kirankokate/Downloads/flutter/.pub-cache/hosted/pub.dartlang.org/xml-3.6.1",
      "packageUri": "lib/",
      "languageVersion": "2.6"
    },
    {
      "name": "yaml",
      "rootUri": "file:///Users/kirankokate/Downloads/flutter/.pub-cache/hosted/pub.dartlang.org/yaml-2.2.1",
      "packageUri": "lib/",
      "languageVersion": "2.4"
    },
    {
      "name": "shubham_karoti_kalynam",
      "rootUri": "../",
      "packageUri": "lib/",
      "languageVersion": "2.6"
    }
  ],
  "generated": "2020-06-02T14:05:06.251084Z",
  "generator": "pub",
  "generatorVersion": "2.8.3"
}
